rv64uzfh-p-fadd: fail
rv64uzfh-p-fclass: fail
rv64uzfh-p-fcmp: fail
rv64uzfh-p-fcvt: fail
rv64uzfh-p-fcvt_w: fail
rv64uzfh-p-fdiv: fail
rv64uzfh-p-fmadd: fail
rv64uzfh-p-fmin: fail
rv64uzfh-p-ldst: fail
rv64uzfh-p-move: fail
rv64uzfh-p-recoding: success
rv64uzfh-v-fadd: fail
rv64uzfh-v-fclass: fail
rv64uzfh-v-fcmp: fail
rv64uzfh-v-fcvt: fail
rv64uzfh-v-fcvt_w: fail
rv64uzfh-v-fdiv: fail
rv64uzfh-v-fmadd: fail
rv64uzfh-v-fmin: fail
rv64uzfh-v-ldst: fail
rv64uzfh-v-move: fail
rv64uzfh-v-recoding: fail
